^C:\USERS\MAGSHIMIM\DESKTOP\SERVER\SERVER\SERVER\DATABASE.CPP|C:\USERS\MAGSHIMIM\DESKTOP\SERVER\SERVER\SERVER\MAINSERVER.CPP|C:\USERS\MAGSHIMIM\DESKTOP\SERVER\SERVER\SERVER\RECIEVEDMESSAGE.CPP|C:\USERS\MAGSHIMIM\DESKTOP\SERVER\SERVER\SERVER\SOURCE.CPP|C:\USERS\MAGSHIMIM\DESKTOP\SERVER\SERVER\SERVER\USER.CPP|C:\USERS\MAGSHIMIM\DESKTOP\SERVER\SERVER\SERVER\VALIDATOR.CPP|C:\USERS\MAGSHIMIM\DESKTOP\SERVER\SERVER\SERVER\WSAINITIALIZER.CPP
C:\USERS\MAGSHIMIM\DESKTOP\SERVER\SERVER\SERVER\DEBUG\VC141.PDB
C:\USERS\MAGSHIMIM\DESKTOP\SERVER\SERVER\SERVER\DEBUG\VC141.IDB
C:\USERS\MAGSHIMIM\DESKTOP\SERVER\SERVER\SERVER\DEBUG\WSAINITIALIZER.OBJ
C:\USERS\MAGSHIMIM\DESKTOP\SERVER\SERVER\SERVER\DEBUG\VALIDATOR.OBJ
C:\USERS\MAGSHIMIM\DESKTOP\SERVER\SERVER\SERVER\DEBUG\USER.OBJ
C:\USERS\MAGSHIMIM\DESKTOP\SERVER\SERVER\SERVER\DEBUG\SOURCE.OBJ
C:\USERS\MAGSHIMIM\DESKTOP\SERVER\SERVER\SERVER\DEBUG\RECIEVEDMESSAGE.OBJ
C:\USERS\MAGSHIMIM\DESKTOP\SERVER\SERVER\SERVER\DEBUG\MAINSERVER.OBJ
C:\USERS\MAGSHIMIM\DESKTOP\SERVER\SERVER\SERVER\DEBUG\DATABASE.OBJ
^C:\USERS\MAGSHIMIM\DESKTOP\SERVER\SERVER\SERVER\DATABASE.CPP|C:\USERS\MAGSHIMIM\DESKTOP\SERVER\SERVER\SERVER\HELPER.CPP|C:\USERS\MAGSHIMIM\DESKTOP\SERVER\SERVER\SERVER\MAINSERVER.CPP|C:\USERS\MAGSHIMIM\DESKTOP\SERVER\SERVER\SERVER\RECIEVEDMESSAGE.CPP|C:\USERS\MAGSHIMIM\DESKTOP\SERVER\SERVER\SERVER\SOURCE.CPP|C:\USERS\MAGSHIMIM\DESKTOP\SERVER\SERVER\SERVER\USER.CPP|C:\USERS\MAGSHIMIM\DESKTOP\SERVER\SERVER\SERVER\VALIDATOR.CPP|C:\USERS\MAGSHIMIM\DESKTOP\SERVER\SERVER\SERVER\WSAINITIALIZER.CPP
C:\USERS\MAGSHIMIM\DESKTOP\SERVER\SERVER\SERVER\DEBUG\VC141.PDB
C:\USERS\MAGSHIMIM\DESKTOP\SERVER\SERVER\SERVER\DEBUG\VC141.IDB
C:\USERS\MAGSHIMIM\DESKTOP\SERVER\SERVER\SERVER\DEBUG\WSAINITIALIZER.OBJ
C:\USERS\MAGSHIMIM\DESKTOP\SERVER\SERVER\SERVER\DEBUG\VALIDATOR.OBJ
C:\USERS\MAGSHIMIM\DESKTOP\SERVER\SERVER\SERVER\DEBUG\USER.OBJ
C:\USERS\MAGSHIMIM\DESKTOP\SERVER\SERVER\SERVER\DEBUG\SOURCE.OBJ
C:\USERS\MAGSHIMIM\DESKTOP\SERVER\SERVER\SERVER\DEBUG\RECIEVEDMESSAGE.OBJ
C:\USERS\MAGSHIMIM\DESKTOP\SERVER\SERVER\SERVER\DEBUG\MAINSERVER.OBJ
C:\USERS\MAGSHIMIM\DESKTOP\SERVER\SERVER\SERVER\DEBUG\HELPER.OBJ
C:\USERS\MAGSHIMIM\DESKTOP\SERVER\SERVER\SERVER\DEBUG\DATABASE.OBJ
^C:\USERS\MAGSHIMIM\DESKTOP\SERVER\SERVER\SERVER\DATABASE.CPP
C:\USERS\MAGSHIMIM\DESKTOP\SERVER\SERVER\SERVER\DEBUG\VC141.PDB
^C:\USERS\MAGSHIMIM\DESKTOP\SERVER\SERVER\SERVER\HELPER.CPP
C:\USERS\MAGSHIMIM\DESKTOP\SERVER\SERVER\SERVER\DEBUG\VC141.PDB
^C:\USERS\MAGSHIMIM\DESKTOP\SERVER\SERVER\SERVER\MAINSERVER.CPP
C:\USERS\MAGSHIMIM\DESKTOP\SERVER\SERVER\SERVER\DEBUG\VC141.PDB
^C:\USERS\MAGSHIMIM\DESKTOP\SERVER\SERVER\SERVER\RECIEVEDMESSAGE.CPP
C:\USERS\MAGSHIMIM\DESKTOP\SERVER\SERVER\SERVER\DEBUG\VC141.PDB
^C:\USERS\MAGSHIMIM\DESKTOP\SERVER\SERVER\SERVER\SOURCE.CPP
C:\USERS\MAGSHIMIM\DESKTOP\SERVER\SERVER\SERVER\DEBUG\VC141.PDB
^C:\USERS\MAGSHIMIM\DESKTOP\SERVER\SERVER\SERVER\USER.CPP
C:\USERS\MAGSHIMIM\DESKTOP\SERVER\SERVER\SERVER\DEBUG\VC141.PDB
^C:\USERS\MAGSHIMIM\DESKTOP\SERVER\SERVER\SERVER\VALIDATOR.CPP
C:\USERS\MAGSHIMIM\DESKTOP\SERVER\SERVER\SERVER\DEBUG\VC141.PDB
^C:\USERS\MAGSHIMIM\DESKTOP\SERVER\SERVER\SERVER\WSAINITIALIZER.CPP
C:\USERS\MAGSHIMIM\DESKTOP\SERVER\SERVER\SERVER\DEBUG\VC141.PDB
